{
    "name": "Album",
    "fields": [
        {
            "fieldName": "name",
            "fieldType": "String",
            "fieldValidateRules": [
                "required"
            ]
        },
        {
            "fieldName": "descripcion",
            "fieldType": "String"
        }
    ],
    "relationships": [],
    "changelogDate": "20190817090432",
    "entityTableName": "album",
    "dto": "mapstruct",
    "pagination": "pager",
    "service": "serviceImpl",
    "jpaMetamodelFiltering": false,
    "fluentMethods": true,
    "clientRootFolder": "",
    "applications": [
        "back",
        "front"
    ]
}